{
  "HALProvider": {
    "Other Devices": {
      "AnalogEncoder[3]": {
        "header": {
          "open": true
        }
      },
      "SPARK MAX [14]": {
        "header": {
          "open": true
        }
      }
    }
  },
  "NTProvider": {
    "types": {
      "/FMSInfo": "FMSInfo"
    }
  },
  "NetworkTables": {
    "transitory": {
      "Shuffleboard": {
        "open": true
      },
      "SmartDashboard": {
        "open": true
      }
    }
  },
  "Plot": {
    "Plot <0>": {
      "plots": [
        {
          "height": 338,
          "series": [
            {
              "color": [
                0.2980392277240753,
                0.44705885648727417,
                0.6901960968971252,
                1.0
              ],
              "id": "AnalogEncoder[3]-Position"
            },
            {
              "color": [
                0.8666667342185974,
                0.5176470875740051,
                0.32156863808631897,
                1.0
              ],
              "id": "NT:/SmartDashboard/swerve [0] turn output"
            },
            {
              "color": [
                0.3333333432674408,
                0.658823549747467,
                0.4078431725502014,
                1.0
              ],
              "id": "NT:/SmartDashboard/swerve [0] sim pos"
            }
          ]
        }
      ]
    }
  }
}
